{
  "pathauto_node_pattern" : "[node:title]",
  "pathauto_punctuation_hyphen" : 1,
  "pathauto_taxonomy_term_pattern" : "[term:vocabulary]/[term:name]",
  "pathauto_user_pattern" : "users/[user:name]",
  "path_alias_whitelist" : {
    "node": 1,
    "taxonomy": 1,
    "user": 1
  },
  "honeypot_protect_all_forms": 1,
  "honeypot_time_limit": "0",
  "xmlsitemap_settings_node_page": {
    "status": "1",
    "priority": "0.5"
  },
  "jquery_update_jquery_cdn": "google",
  "webform_clear_default_time": 0,
  "theme_canvas_zen_settings": {
    "zen_rebuild_registry": 0
  },
  "password_policy_new_login_change": 1,
  "session_cookie_lifetime_type": "browser_session",
  "login_security_user_wrong_count": "5",
  "login_security_track_time": "24",
  "login_security_last_access_timestamp": 1,
  "login_security_last_login_timestamp": 1,
  "toc_filter_header_tag": "h2",
  "shield_enabled": 0,
  "maintenance_mode_message": "<p>This web site is currently undergoing some maintenance and is unavailable.</p><p>Thank you for your patience.</p>",
  "linkchecker_scan_nodetypes": {
    "blog_article": "blog_article",
    "event": "event",
    "media_release": "media_release",
    "news_article": "news_article",
    "footer_teaser": "footer_teaser",
    "publication": "publication",
    "slide": "slide",
    "page": "page",
    "webform": "webform"
  },
  "linkchecker_impersonate_user": "admin",
  "linkchecker_scan_blocks": 1,
  "oauth_common_enable_provider": false,
  "file_lock_mode": "all",
  "userprotect_role_protections": {
    "2": {
      "up_name": 0,
      "up_mail": 0,
      "up_pass": 0,
      "up_status": 0,
      "up_roles": 0,
      "up_openid": 0,
      "up_cancel": 0,
      "up_edit": 0
    },
    "4": {
      "up_name": 0,
      "up_mail": 0,
      "up_pass": 0,
      "up_status": 0,
      "up_roles": 0,
      "up_openid": 0,
      "up_cancel": 0,
      "up_edit": 0
    },
    "5": {
      "up_name": 0,
      "up_mail": 0,
      "up_pass": 0,
      "up_status": 0,
      "up_roles": 0,
      "up_openid": 0,
      "up_cancel": 0,
      "up_edit": 0
    },
    "6": {
      "up_name": 0,
      "up_mail": 0,
      "up_pass": 0,
      "up_status": 0,
      "up_roles": 0,
      "up_openid": 0,
      "up_cancel": 0,
      "up_edit": 0
    },
    "7": {
      "up_name": 0,
      "up_mail": 0,
      "up_pass": 0,
      "up_status": 0,
      "up_roles": 0,
      "up_openid": 0,
      "up_cancel": 0,
      "up_edit": 0
    },
    "3": {
      "up_name": 1,
      "up_mail": 1,
      "up_pass": 1,
      "up_status": 1,
      "up_roles": 1,
      "up_openid": 1,
      "up_cancel": 1,
      "up_edit": 1
    }
  },
  "site_403": "m4032404",
  "feed_default_items": "10",
  "feed_item_length": "title",
  "crumbs_weights": {
    "crumbs.home_title": 1,
    "path": 2,
    "*": 3
  },
  "crumbs_show_current_page": 1
}
